111111111111111111111111111111111111111111111111111
111111111111111111111111111111111111111111111111111
111888888888888888888888899999999999999999999991111
111888888888888888888888899999999999999999999991111
111888888888888888888888899999999999999999999991111
111111111118888888111111111111119999999111111111111
111111111118888888111111111111119999999111111111111
111111111118888888111111111111119999999111111111111
111111111118888888111111111111119999999111111111111
111111111118888888111111111111119999999111111111111
111111111118888888111111111111119999999111111111111
111111111118888888111111111111119999999111111111111
111111111118888888111111111111119999999111111111111
111111111118888888111111111111119999999111111111111
111111111118888888111111111111119999999111111111111
111111111118888888111111111111119999999111111111111
111111111118888888111111111111119999999111111111111
111111111118888888111111111111119999999111111111111
111111111111111111111111111111111111111111111111111
111111111111111111111111111111111111111111111111111
000000000000000000000000000000000000000000000000000
000000000000000000000000000000000000000000000000000
000000000000000000000000000000000000000000000000000
000000000000000000000000000000000000000000000000000
000000000000000000000000000000000000000000000000000
000000000000000000000000000000000000000000000000000
000000000000000000000000000000000000000000000000000
000000000000000000000000000000000000000000000000000
000000000000000000000000000000000000000000000000000
00000000000000000000000000*000000000000000000000000
000000000000000000000000000000000000000000000000000
000000000000000000000000000000000000000000000000000
000000000000000000000000000000000000000000000000000
000000000000000000000000000000000000000000000000000
000000000000000000000000000000000000000000000000000
000000000000000000000000000000000000000000000000000
000000000000000000000000000000000000000000000000000
000000000000000000000000000000000000000000000000000
000000000000000000000000000000000000000000000000001
